( X: 0, Y: 0 )
( X: 0, Y: 0 )
( X: 1, Y: 1 )
( X: 2, Y: 2 )
( X: 2, Y: 2 )
( X: 3, Y: 3 )
( X: -1, Y: -1 )
( X: 1, Y: 1 )
( X: -2, Y: -2 )
( X: -1, Y: -1 )
0
0
1
2
2
3
-1
1
-2
-1
0
0
1
2
2
3
-1
1
-2
-1
TkwCompiledProcedure
TkwCompiledProcedure
TkwCompiledProcedure
TkwCompiledProcedure
TkwCompiledProcedure
TkwCompiledProcedure
TkwCompiledProcedure
TkwCompiledProcedure
TkwCompiledProcedure
TkwCompiledProcedure
_Point_
_Point_
_Point_
_Point_
_Point_
_Point_
_Point_
_Point_
_Point_
_Point_
Hello world
Hello world
Hello world
3
30
-10
-10
10
VOID Test PointTest
 class_impl _Object_
 ; // class_impl _Object_
 
 class_impl _Point_
 ; // class_impl _Point_
 
 INTEGER CONST c:Object:Instance:Size
  1
 INTEGER CONST c:Object:Offset:VMT
  0
 INTEGER CONST c:Point:Instance:Size
  3
 INTEGER CONST c:Point:Offset:X
  1
 INTEGER CONST c:Point:Offset:Y
  2
 IMMEDIATE VOID OPERATOR class
  ^L IN aName
  aName
  |N
  g_CurrentClass
  pop:Word:SetValue
  ':'
  Ctx:Parser:PushSymbol
  @
  class_impl
  Ctx:SetWordProducerForCompiledClass
  [
   '_'
   g_CurrentClass
   '_'
  ]
  strings:Cat
  g_CurrentClassImpl
  pop:Word:SetValue
  g_CurrentClassImpl
  Ctx:Parser:PushSymbol
  ';'
  Ctx:Parser:PushSymbol
  'array'
  Ctx:Parser:PushSymbol
  'type'
  Ctx:Parser:PushSymbol
  g_CurrentClass
  Ctx:Parser:PushSymbol
 ; // IMMEDIATE VOID OPERATOR class
 
 IMMEDIATE VOID OPERATOR class_impl
 ; // IMMEDIATE VOID OPERATOR class_impl
 
 IMMEDIATE VOID OPERATOR ClassFieldOffset
  ^L IN aName
  ^ IN anOffset
  anOffset |^
  g_ClassFieldOffset
  pop:Word:SetValue
  'private'
  Ctx:Parser:PushSymbol
  'Const'
  Ctx:Parser:PushSymbol
  [
   'c:'
   g_CurrentClass
   ':Offset:'
   aName
   |N
  ]
  strings:Cat
  Ctx:Parser:PushSymbol
  g_ClassFieldOffset
  Ctx:Parser:PushInt
 ; // IMMEDIATE VOID OPERATOR ClassFieldOffset
 
 IMMEDIATE VOID OPERATOR ClassInstanceSize
  'private'
  Ctx:Parser:PushSymbol
  'Const'
  Ctx:Parser:PushSymbol
  [
   'c:'
   g_CurrentClass
   ':Instance:Size'
  ]
  strings:Cat
  Ctx:Parser:PushSymbol
  g_ClassFieldOffset
  ++
  Ctx:Parser:PushInt
 ; // IMMEDIATE VOID OPERATOR ClassInstanceSize
 
 IMMEDIATE VOID OPERATOR constructor
  ^L IN aName
  constructor
  Ctx:SetWordProducerForCompiledClass
  g_CurrentClass
  Ctx:Parser:PushSymbol
  ':'
  Ctx:Parser:PushSymbol
  [
   g_CurrentClass
   ':'
   aName
   |N
  ]
  strings:Cat
  Ctx:Parser:PushSymbol
 ; // IMMEDIATE VOID OPERATOR constructor
 
 : FieldByOffset
  ^ IN anOffset
  Object IN Self
  anOffset |^
  Self
  Array:GetItem
 ; // : FieldByOffset
 
 IMMEDIATE VOID TYPE FieldOffset
  TtfwValueTypes
  Ctx:IncludeValueTypes
 ; // IMMEDIATE VOID TYPE FieldOffset
 
 INTEGER VAR g_ClassFieldOffset
 STRING VAR g_CurrentClass
 STRING VAR g_CurrentClassImpl
 ARRAY VAR l_Points
 IMMEDIATE VOID OPERATOR method
  ^L IN aName
  method
  Ctx:SetWordProducerForCompiledClass
  ':'
  Ctx:Parser:PushSymbol
  [
   g_CurrentClass
   ':'
   aName
   |N
  ]
  strings:Cat
  Ctx:Parser:PushSymbol
  g_CurrentClass
  Ctx:Parser:PushSymbol
  'in'
  Ctx:Parser:PushSymbol
  'Self'
  Ctx:Parser:PushSymbol
 ; // IMMEDIATE VOID OPERATOR method
 
 IMMEDIATE VOID OPERATOR new[
  '['
  Ctx:Parser:PushSymbol
  '@'
  Ctx:Parser:PushSymbol
  g_CurrentClassImpl
  Ctx:Parser:PushSymbol
 ; // IMMEDIATE VOID OPERATOR new[
 
 IMMEDIATE VOID TYPE Object
  TtfwValueTypes
  Ctx:IncludeValueTypes
 ; // IMMEDIATE VOID TYPE Object
 
 TtfwWord readonly Object:class
  Object IN Self
  Self
  FieldByOffset
  c:Object:Offset:VMT
  Result
  pop:Word:SetValue
 ; // TtfwWord readonly Object:class
 
 STRING readonly Object:ClassName
  Object IN Self
  Self
  Object:class
  |N
  Result
  pop:Word:SetValue
 ; // STRING readonly Object:ClassName
 
 Point VAR P1
 Point VAR P10
 Point VAR P2
 Point VAR P3
 Point VAR P4
 Point VAR P5
 Point VAR P6
 Point VAR P7
 Point VAR P8
 Point VAR P9
 IMMEDIATE VOID TYPE Pixel
  TtfwValueTypes
  Ctx:IncludeValueTypes
 ; // IMMEDIATE VOID TYPE Pixel
 
 IMMEDIATE VOID TYPE PixelList
  TtfwValueTypes
  Ctx:IncludeValueTypes
 ; // IMMEDIATE VOID TYPE PixelList
 
 IMMEDIATE VOID TYPE Point
  TtfwValueTypes
  Ctx:IncludeValueTypes
 ; // IMMEDIATE VOID TYPE Point
 
 Point method Point:-
  ^ IN aPoint
  Point IN Self
  Point:OF
  (
   Self
   Point:+
   (
    aPoint |^
    Point:Neg
   )
  )
  Result
  pop:Word:SetValue
 ; // Point method Point:-
 
 Point constructor Point::
  ^ IN aX
  ^ IN aY
  [
   @
   _Point_
   aX |^
   aY |^
  ]
  Result
  pop:Word:SetValue
 ; // Point constructor Point::
 
 Point method Point:+
  ^ IN aPoint
  Point IN Self
  Point::
  (
   (
    Self
    Point:X
   )
   (+)
   (
    aPoint |^
    Point:X
   )
  )
  (
   (
    Self
    Point:Y
   )
   (+)
   (
    aPoint |^
    Point:Y
   )
  )
  Result
  pop:Word:SetValue
 ; // Point method Point:+
 
 Point constructor Point:0
  Point::
  0
  0
  Result
  pop:Word:SetValue
 ; // Point constructor Point:0
 
 Point method Point:Neg
  Point IN Self
  Point::
  Neg
  (
   Self
   Point:X
  )
  Neg
  (
   Self
   Point:Y
  )
  Result
  pop:Word:SetValue
 ; // Point method Point:Neg
 
 Point constructor Point:OF
  ^ IN aPoint
  Point::
  (
   aPoint |^
   Point:X
  )
  (
   aPoint |^
   Point:Y
  )
  Result
  pop:Word:SetValue
 ; // Point constructor Point:OF
 
 VOID method Point:Print
  Point IN Self
  [
   '( '
   'X: '
   Self
   Point:X
   ToPrintable
   ', Y: '
   Self
   Point:Y
   ToPrintable
   ' )'
  ]
  strings:Cat
  .
 ; // VOID method Point:Print
 
 Pixel readonly Point:X
  Point IN Self
  Self
  FieldByOffset
  c:Point:Offset:X
  Result
  pop:Word:SetValue
 ; // Pixel readonly Point:X
 
 Point constructor Point:XY
  ^ IN aPoint
  ARRAY VAR Points
  [
   aPoint |^
  ]
  Points
  pop:Word:SetValue
  Point::
  (
   Points
   FieldByOffset
   0
  )
  (
   Points
   FieldByOffset
   1
  )
  Result
  pop:Word:SetValue
 ; // Point constructor Point:XY
 
 Pixel readonly Point:Y
  Point IN Self
  Self
  FieldByOffset
  c:Point:Offset:Y
  Result
  pop:Word:SetValue
 ; // Pixel readonly Point:Y
 
 IMMEDIATE VOID OPERATOR readonly
  ^L IN aName
  readonly
  Ctx:SetWordProducerForCompiledClass
  ':'
  Ctx:Parser:PushSymbol
  [
   g_CurrentClass
   ':'
   aName
   |N
  ]
  strings:Cat
  Ctx:Parser:PushSymbol
  g_CurrentClass
  Ctx:Parser:PushSymbol
  'in'
  Ctx:Parser:PushSymbol
  'Self'
  Ctx:Parser:PushSymbol
 ; // IMMEDIATE VOID OPERATOR readonly
 
 ''
 g_CurrentClass
 pop:Word:SetValue
 ''
 g_CurrentClassImpl
 pop:Word:SetValue
 0
 g_ClassFieldOffset
 pop:Word:SetValue
 Point:0
 P1
 pop:Word:SetValue
 Point:0
 P2
 pop:Word:SetValue
 Point::
 1
 1
 P3
 pop:Word:SetValue
 Point:XY
 (
  2
  2
 )
 P4
 pop:Word:SetValue
 Point:OF
 P4
 P5
 pop:Word:SetValue
 (
  P3
  Point:+
  P4
 )
 P6
 pop:Word:SetValue
 (
  P3
  Point:-
  P4
 )
 P7
 pop:Word:SetValue
 (
  P4
  Point:-
  P3
 )
 P8
 pop:Word:SetValue
 (
  P4
  Point:Neg
 )
 P9
 pop:Word:SetValue
 (
  P3
  Point:Neg
 )
 P10
 pop:Word:SetValue
 [
  P1
  P2
  P3
  P4
  P5
  P6
  P7
  P8
  P9
  P10
 ]
 l_Points
 pop:Word:SetValue
 l_Points
 DO
 Point:Print
 SWAP
 Array:Iterate
 l_Points
 DO
 (
  Point:X
  .
 )
 SWAP
 Array:Iterate
 l_Points
 DO
 (
  Point:Y
  .
 )
 SWAP
 Array:Iterate
 l_Points
 DO
 (
  Object:class
  .
 )
 SWAP
 Array:Iterate
 l_Points
 DO
 (
  Object:ClassName
  .
 )
 SWAP
 Array:Iterate
 'Hello '
 (+)
 'world'
 .
 'Hello '
 (+)
 'world'
 .
 'Hello '
 (+)
 'world'
 .
 1
 (+)
 2
 .
 10
 (+)
 20
 .
 0
 (-)
 10
 .
 Neg
 10
 .
 Neg
 -10
 .
 PointTest
 DumpElement
; // VOID Test PointTest

