pop:Word:SetValue
PROCEDURE P1 (Line 3, ExceptionStack.ms.script)
PROCEDURE P2 (Line 8, ExceptionStack.ms.script)
PROCEDURE P3 (Line 12, ExceptionStack.ms.script)
TRY (Line 16, ExceptionStack.ms.script)
